Chunking dataframes — chunk_df • mrgmisc
…
# Chunking with grouped data will evenly distribute the 
# number of unique group elements across the chunks.  

Theoph %>% group_by(Subject) %>% chunk_df(.nchunks = 5)
#> $`1`
#> # A tibble: 33 × 6
#> # Groups:   Subject [3]
#>    Subject    Wt  Dose  Time  conc chunk__
#>    <ord>   <dbl> <dbl> <dbl> <dbl>   <int>
#>  1 1        79.6  4.02  0     0.74       1
#>  2 1        79.6  4.02  0.25  2.84       1
#>  3 1        79.6  4.02  0.57  6.57       1
#>  4 1        79.6  4.02  1.12 10.5        1
#>  5 1        79.6  4.02  2.02  9.66       1
#>  6 1        79.6  4.02  3.82  8.58       1
#>  7 1        79.6  4.02  5.1   8.36       1
#>  8 1        79.6  4.02  7.03  7.47       1
#>  9 1        79.6  4.02  9.05  6.89       1
#> 10 1        79.6  4.02 12.1   5.94       1
#> # … with 23 more rows
#> 
#> $`2`
#> # A tibble: 33 × 6
#> # Groups:   Subject [3]
#>    Subject    Wt  Dose  Time  conc chunk__
#>    <ord>   <dbl> <dbl> <dbl> <dbl>   <int>
#>  1 4        72.7   4.4  0     0          2
#>  2 4        72.7   4.4  0.35  1.89       2
#>  3 4        72.7   4.4  0.6   4.6        2
#>  4 4        72.7   4.4  1.07  8.6        2
#>  5 4        72.7   4.4  2.13  8.38       2
#>  6 4        72.7   4.4  3.5   7.54       2
#>  7 4        72.7   4.4  5.02  6.88       2
#>  8 4        72.7   4.4  7.02  5.78       2
#>  9 4        72.7   4.4  9.02  5.33       2
#> 10 4        72.7   4.4 12.0   4.19       2
#> # … with 23 more rows
#> 
#> $`3`
#> # A tibble: 22 × 6
#> # Groups:   Subject [2]
#>    Subject    Wt  Dose  Time  conc chunk__
#>    <ord>   <dbl> <dbl> <dbl> <dbl>   <int>
#>  1 7        64.6  4.95  0     0.15       3
#>  2 7        64.6  4.95  0.25  0.85       3
#>  3 7        64.6  4.95  0.5   2.35       3
#>  4 7        64.6  4.95  1.02  5.02       3
#>  5 7        64.6  4.95  2.02  6.58       3
#>  6 7        64.6  4.95  3.48  7.09       3
#>  7 7        64.6  4.95  5     6.66       3
#>  8 7        64.6  4.95  6.98  5.25       3
#>  9 7        64.6  4.95  9     4.39       3
#> 10 7        64.6  4.95 12.0   3.53       3
#> # … with 12 more rows
#> 
#> $`4`
#> # A tibble: 22 × 6
#> # Groups:   Subject [2]
#>    Subject    Wt  Dose  Time  conc chunk__
#>    <ord>   <dbl> <dbl> <dbl> <dbl>   <int>
#>  1 9        86.4   3.1  0     0          4
#>  2 9        86.4   3.1  0.3   7.37       4
#>  3 9        86.4   3.1  0.63  9.03       4
#>  4 9        86.4   3.1  1.05  7.14       4
#>  5 9        86.4   3.1  2.02  6.33       4
#>  6 9        86.4   3.1  3.53  5.66       4
#>  7 9        86.4   3.1  5.02  5.67       4
#>  8 9        86.4   3.1  7.17  4.24       4
#>  9 9        86.4   3.1  8.8   4.11       4
#> 10 9        86.4   3.1 11.6   3.16       4
#> # … with 12 more rows
#> 
#> $`5`
#> # A tibble: 22 × 6
#> # Groups:   Subject [2]
#>    Subject    Wt  Dose  Time  conc chunk__
#>    <ord>   <dbl> <dbl> <dbl> <dbl>   <int>
#>  1 11         65  4.92  0     0          5
#>  2 11         65  4.92  0.25  4.86       5
#>  3 11         65  4.92  0.5   7.24       5
#>  4 11         65  4.92  0.98  8          5
#>  5 11         65  4.92  1.98  6.81       5
#>  6 11         65  4.92  3.6   5.87       5
#>  7 11         65  4.92  5.02  5.22       5
#>  8 11         65  4.92  7.03  4.45       5
#>  9 11         65  4.92  9.03  3.62       5
#> 10 11         65  4.92 12.1   2.69       5
#> # … with 12 more rows
#> 

# The dataframe can be retained by preventing the output
# from being a list.

Theoph %>% chunk_df(Subject, .nchunks = 3, .as_list = FALSE)
#> # A tibble: 132 × 6
#> # Groups:   Subject [12]
#>    Subject    Wt  Dose  Time  conc chunk__
#>    <ord>   <dbl> <dbl> <dbl> <dbl>   <int>
#>  1 1        79.6  4.02  0     0.74       1
#>  2 1        79.6  4.02  0.25  2.84       1
#>  3 1        79.6  4.02  0.57  6.57       1
#>  4 1        79.6  4.02  1.12 10.5        1
#>  5 1        79.6  4.02  2.02  9.66       1
#>  6 1        79.6  4.02  3.82  8.58       1
#>  7 1        79.6  4.02  5.1   8.36       1
#>  8 1        79.6  4.02  7.03  7.47       1
#>  9 1        79.6  4.02  9.05  6.89       1
#> 10 1        79.6  4.02 12.1   5.94       1
#> # … with 122 more rows
…
