resampling — resample_df • mrgmisc
…
# simple example resampling by ID maintaining Gender distribution, with 10 individuals
resample_df(sd_oral_richpk, key_cols = "ID", strat_cols = "Gender", n = 10)
#> Joining with `by = join_by(ID)`
#> Joining with `by = join_by(ID)`
#> Joining with `by = join_by(ID)`
#> Joining with `by = join_by(ID)`
#> Joining with `by = join_by(ID)`
#> Joining with `by = join_by(ID)`
#> Joining with `by = join_by(ID)`
#> Joining with `by = join_by(ID)`
#> Joining with `by = join_by(ID)`
#> Joining with `by = join_by(ID)`
#> # A tibble: 120 × 10
#>      KEY    ID  Time   Amt  Conc   Age Weight Gender Race   Dose
#>    <int> <int> <dbl> <int> <dbl> <dbl>  <dbl> <fct>  <fct> <int>
#>  1     1    39  0     5000  0     49.8   64.8 Female Asian  5000
#>  2     1    39  0.25     0  6.91  49.8   64.8 Female Asian  5000
#>  3     1    39  0.5      0 14.3   49.8   64.8 Female Asian  5000
#>  4     1    39  1        0 28.3   49.8   64.8 Female Asian  5000
#>  5     1    39  2        0 48.5   49.8   64.8 Female Asian  5000
#>  6     1    39  3        0 47.1   49.8   64.8 Female Asian  5000
#>  7     1    39  4        0 46.4   49.8   64.8 Female Asian  5000
#>  8     1    39  6        0 41.0   49.8   64.8 Female Asian  5000
#>  9     1    39  8        0 37.2   49.8   64.8 Female Asian  5000
#> 10     1    39 12        0 28.6   49.8   64.8 Female Asian  5000
#> # ℹ 110 more rows
…
#> Joining with `by = join_by(ID, REP)`
#> Joining with `by = join_by(ID, REP)`
#> Joining with `by = join_by(ID, REP)`
#> Joining with `by = join_by(ID, REP)`
#> Joining with `by = join_by(ID, REP)`
#> Joining with `by = join_by(ID, REP)`
#> Joining with `by = join_by(ID, REP)`
#> Joining with `by = join_by(ID, REP)`
#> Joining with `by = join_by(ID, REP)`
#> Joining with `by = join_by(ID, REP)`
#> Joining with `by = join_by(ID, REP)`
#> Joining with `by = join_by(ID, REP)`
#> Joining with `by = join_by(ID, REP)`
#> Joining with `by = join_by(ID, REP)`
#> # A tibble: 1,140 × 11
#>      KEY    ID  Time   Amt  Conc   Age Weight Gender Race      Dose   REP
#>    <int> <int> <dbl> <int> <dbl> <dbl>  <dbl> <fct>  <fct>    <int> <int>
#>  1     1     1  0     5000  0     56.1   94.2 Male   Hispanic  5000     5
#>  2     1     1  0.25     0  8.61  56.1   94.2 Male   Hispanic  5000     5
#>  3     1     1  0.5      0 19.4   56.1   94.2 Male   Hispanic  5000     5
#>  4     1     1  1        0 34.0   56.1   94.2 Male   Hispanic  5000     5
#>  5     1     1  2        0 30.2   56.1   94.2 Male   Hispanic  5000     5
#>  6     1     1  3        0 31.3   56.1   94.2 Male   Hispanic  5000     5
#>  7     1     1  4        0 25.0   56.1   94.2 Male   Hispanic  5000     5
#>  8     1     1  6        0 23.4   56.1   94.2 Male   Hispanic  5000     5
#>  9     1     1  8        0 23.5   56.1   94.2 Male   Hispanic  5000     5
#> 10     1     1 12        0 14.7   56.1   94.2 Male   Hispanic  5000     5
#> # ℹ 1,130 more rows
…
