resample_df. PKPDmisc 0.4.4.9000
…
      A new keyed column will be created (defaults to name 'KEY') that contains the uniquely
created new samples. This allows one to easily compare against the key'd columns. Eg,
if you would like to see how many times a particular individual was resampled you can 
check the original ID column against the number of key's associated with that ID number.

    Examples

library(PKPDmisc)
library(PKPDdatasets)
library(dplyr, quiet = TRUE)

# simple example resampling by ID maintaining Gender distribution, with 10 individuals
resample_df(sd_oral_richpk, key_cols = "ID", strat_cols = "Gender", n = 10)

# A tibble: 120 x 10
     KEY    ID  Time   Amt     Conc      Age   Weight Gender      Race  Dose
   <int> <int> <dbl> <int>    <dbl>    <dbl>    <dbl> <fctr>    <fctr> <int>
1      1     5  0.00  5000  0.00000 50.86722 73.76395 Female Caucasian  5000
2      1     5  0.25     0 17.61997 50.86722 73.76395 Female Caucasian  5000
3      1     5  0.50     0 28.70406 50.86722 73.76395 Female Caucasian  5000
4      1     5  1.00     0 46.76939 50.86722 73.76395 Female Caucasian  5000
5      1     5  2.00     0 51.63110 50.86722 73.76395 Female Caucasian  5000
6      1     5  3.00     0 50.83126 50.86722 73.76395 Female Caucasian  5000
7      1     5  4.00     0 49.13784 50.86722 73.76395 Female Caucasian  5000
8      1     5  6.00     0 25.56447 50.86722 73.76395 Female Caucasian  5000
9      1     5  8.00     0 24.36807 50.86722 73.76395 Female Caucasian  5000
10     1     5 12.00     0 17.26484 50.86722 73.76395 Female Caucasian  5000
# ... with 110 more rows
…
# make 'simulated' data with 5 replicates and combine to single dataframe
rep_dat <- lapply(1:5, function(x) {
subset_data %>%
  mutate(REP = x)
  }) %>% bind_rows()

# now when we resample we also want to maintain the ID+REP relationship as resampling
# just the ID would give all rows associated for an ID with all reps, rather than 
# a single "unit" of ID/REP
resample_df(rep_dat, key_cols = c("ID", "REP"))

# A tibble: 1,140 x 11
     KEY    ID  Time   Amt     Conc      Age   Weight Gender   Race  Dose
   <int> <int> <dbl> <int>    <dbl>    <dbl>    <dbl> <fctr> <fctr> <int>
1      1     8  0.00  5000  0.00000 56.69499 85.01492   Male  Asian  5000
2      1     8  0.25     0 16.32241 56.69499 85.01492   Male  Asian  5000
3      1     8  0.50     0 22.99479 56.69499 85.01492   Male  Asian  5000
4      1     8  1.00     0 32.43056 56.69499 85.01492   Male  Asian  5000
5      1     8  2.00     0 36.36604 56.69499 85.01492   Male  Asian  5000
6      1     8  3.00     0 44.44578 56.69499 85.01492   Male  Asian  5000
7      1     8  4.00     0 37.03352 56.69499 85.01492   Male  Asian  5000
8      1     8  6.00     0 27.56513 56.69499 85.01492   Male  Asian  5000
9      1     8  8.00     0 26.36640 56.69499 85.01492   Male  Asian  5000
10     1     8 12.00     0 18.76405 56.69499 85.01492   Male  Asian  5000
# ... with 1,130 more rows, and 1 more variables: REP <int>
…
