summarize paucs — s_pauc_ • PKPDmisc
…
      dv
      string name for dependent variable column (eg. dv or cobs)

      paucs
      list of ranges for pauc calculation

      digits
      number of decimals to round result before returning

    Examples

library(dplyr)
sd_oral_richpk  %>% group_by(ID) %>% s_pauc(Time, Conc, list(c(0,8), c(8, 24)))
#> # A tibble: 50 x 3
#> # Groups:   ID [?]
#>       ID  pAUC0_8  pAUC8_24
#>    <int>    <dbl>     <dbl>
#>  1     1 204.2096 181.36634
#>  2     2 523.2355 680.25930
#>  3     3 315.8860 150.42555
#>  4     4 564.1666 655.46980
#>  5     5 301.9122 185.65587
#>  6     6 154.0215 141.22655
#>  7     7 393.2182 345.81371
#>  8     8 254.8853 198.88676
#>  9     9 286.1393 412.84688
#> 10    10 121.8113  39.63712
#> # ... with 40 more rows
sd_oral_richpk  %>% group_by(ID) %>% s_pauc_("Time", "Conc", list(c(0,8), c(8, 24)))
#> # A tibble: 50 x 3
#> # Groups:   ID [?]
#>       ID  pAUC0_8  pAUC8_24
#>    <int>    <dbl>     <dbl>
#>  1     1 204.2096 181.36634
#>  2     2 523.2355 680.25930
#>  3     3 315.8860 150.42555
#>  4     4 564.1666 655.46980
#>  5     5 301.9122 185.65587
#>  6     6 154.0215 141.22655
#>  7     7 393.2182 345.81371
#>  8     8 254.8853 198.88676
#>  9     9 286.1393 412.84688
#> 10    10 121.8113  39.63712
#> # ... with 40 more rows
…
